{
    "$schema": "https://schema.management.azure.com/schemas/2019-04-01/deploymentTemplate.json#",
    "contentVersion": "1.0.0.0",
    "parameters": {
        "containerGroups_graphql_server_container_group_name": {
            "defaultValue": "graphql-server-container-group",
            "type": "String"
        },
        "hasuraPassword": {
          "type": "securestring",
          "metadata": {
            "description": "Hasura Admin Password"
          }
        }
    },
    "variables": {},
    "resources": [
        {
            "type": "Microsoft.ContainerInstance/containerGroups",
            "apiVersion": "2019-12-01",
            "name": "[parameters('containerGroups_graphql_server_container_group_name')]",
            "location": "germanywestcentral",
            "properties": {
                "sku": "Standard",
                "containers": [
                    {
                        "name": "hasura-graphql-engine",
                        "properties": {
                            "image": "hasura/graphql-engine:v1.3.3",
                            "command": [
                                "graphql-engine",
                                "--host",
                                "easelink-db.postgres.database.azure.com",
                                "--port",
                                "5432",
                                "--user",
                                "easelinkiotdb@easelink-db",
                                "--password",
                                "Fd25%WsPhpZUW",
                                "--dbname",
                                "postgres",
                                "serve",
                                "--server-port",
                                "80",
                                "--enable-console"
                            ],
                            "ports": [
                                {
                                    "protocol": "TCP",
                                    "port": 80
                                }
                            ],
                            "environmentVariables": [
                              {
                                "name": "HASURA_GRAPHQL_ADMIN_SECRET",
                                "value": "[parameters('hasuraPassword')]"
                              },
                              {
                                "name": "HASURA_GRAPHQL_JWT_SECRET",
                                "value": "{\"jwk_url\": \"https:\/\/login.microsoftonline.com\/3c6aa719-c897-4591-af8a-229f6d3d3582\/discovery\/v2.0\/keys?appid=23c301a2-d369-4097-9f05-da47131b2288\", \"audience\": \"23c301a2-d369-4097-9f05-da47131b2288\", \"issuer\": \"https:\/\/login.microsoftonline.com\/3c6aa719-c897-4591-af8a-229f6d3d3582\/v2.0\", \"claims_map\": {\"x-hasura-allowed-roles\": [\"user\"],\"x-hasura-default-role\": \"user\",\"x-hasura-user-id\": {\"path\":\"$.idTokenClaims.sub\"}}}"
                              }
                            ],
                            "resources": {
                                "requests": {
                                    "memoryInGB": 1,
                                    "cpu": 1
                                }
                            }
                        }
                    }
                ],
                "initContainers": [],
                "restartPolicy": "Always",
                "ipAddress": {
                    "ports": [
                        {
                            "protocol": "TCP",
                            "port": 80
                        }
                    ],
                    "ip": "20.52.205.2",
                    "type": "Public",
                    "dnsNameLabel": "graphql-server"
                },
                "osType": "Linux"
            }
        }
    ]
}